EESchema Schematic File Version 2
LIBS:spice
LIBS:project-cache
EELAYER 25 0
EELAYER END
$Descr A4 11693 8268
encoding utf-8
Sheet 1 1
Title ""
Date ""
Rev ""
Comp ""
Comment1 ""
Comment2 ""
Comment3 ""
Comment4 ""
$EndDescr
$Comp
L V V1
U 1 1 56F2CA7B
P 1800 2700
F 0 "V1" H 1675 2900 60  0000 C CNN
F 1 "DC 3.3V" H 1300 2700 60  0000 C CNN
F 2 "" H 1475 2700 60  0000 C CNN
F 3 "" H 1475 2700 60  0000 C CNN
	1    1800 2700
	1    0    0    -1  
$EndComp
Text Notes 8950 6300 0    60   ~ 0
+pspice\n* \n.control\n  options nopage\n  options savecurrents\n  tran 10nS 110uS 10uS\n  let IQ11=VQ11#branch\n  let PQ11=IQ11*v(MOT,MA)\n  let IQ21=VQ21#branch\n  let PQ21=IQ21*v(MOT,MB)\n  let IQ12=VQ12#branch\n  let PQ12=IQ12*v(MA)\n  let IQ22=VQ22#branch\n  let PQ22=IQ22*v(MB)\n  let Isrc=-VP1#branch\n  let Psrc=Isrc*v(MOT)\n  let Imot=VX1#branch\n  let Pmot=Imot*v(MA,MB)\n  let cop=Pmot*100/Psrc\n  set gnuplot_terminal=png\n  gnuplot project\n  + v(PWM)\n  + v(GAH,MOT)\n*  + v(GBH,MOT)\n*  + IQ11\n*  + IQ12\n*  + v(XAL)\n  + v(GAL)\n*  + v(GBL)\n*  + v(MB,MA)\n  + v(MA)\n  + v(MB)\n  meas tran PQ11 avg PQ11\n  meas tran PQ21 avg PQ21\n  meas tran PQ12 avg PQ12\n  meas tran PQ22 avg PQ22\n  meas tran Psrc avg Psrc\n  meas tran Pmot avg Pmot\n  meas tran cop avg cop\n.endc
$Comp
L 0 #GND01
U 1 1 57FC98F4
P 1800 3100
F 0 "#GND01" H 1800 3000 40  0001 C CNN
F 1 "0" H 1800 3030 40  0000 C CNN
F 2 "" H 1800 3100 60  0000 C CNN
F 3 "" H 1800 3100 60  0000 C CNN
	1    1800 3100
	1    0    0    -1  
$EndComp
Text GLabel 1800 2300 1    60   Input ~ 0
LOG
Text Notes 8300 1100 0    60   ~ 0
-pspice\n* \n.include ../.spice/bjt.lib\n.include ../.spice/mosfet.lib
$Comp
L V VP2
U 1 1 58B027AB
P 1400 4300
F 0 "VP2" H 1275 4500 60  0000 C CNN
F 1 "DC 17V" H 900 4300 60  0000 C CNN
F 2 "" H 1075 4300 60  0000 C CNN
F 3 "" H 1075 4300 60  0000 C CNN
	1    1400 4300
	1    0    0    -1  
$EndComp
$Comp
L 0 #GND02
U 1 1 58B027B1
P 1400 5300
F 0 "#GND02" H 1400 5200 40  0001 C CNN
F 1 "0" H 1400 5230 40  0000 C CNN
F 2 "" H 1400 5300 60  0000 C CNN
F 3 "" H 1400 5300 60  0000 C CNN
	1    1400 5300
	1    0    0    -1  
$EndComp
Text GLabel 1500 4000 2    60   Input ~ 0
MOT
$Comp
L V VP1
U 1 1 58B02BB1
P 1400 4900
F 0 "VP1" H 1275 5100 60  0000 C CNN
F 1 "DC 10V" H 900 4900 60  0000 C CNN
F 2 "" H 1075 4900 60  0000 C CNN
F 3 "" H 1075 4900 60  0000 C CNN
	1    1400 4900
	1    0    0    -1  
$EndComp
Text GLabel 1500 4600 2    60   Input ~ 0
DRV
Text GLabel 3200 1000 1    60   Input ~ 0
MOT
$Comp
L QNMOS XQ12
U 1 1 58B034D0
P 3100 2800
F 0 "XQ12" H 3025 2925 50  0000 R CNN
F 1 "SI2306BDS" H 3150 2625 50  0000 R CNN
F 2 "" H 3300 2900 50  0000 C CNN
F 3 "" H 3100 2800 50  0000 C CNN
	1    3100 2800
	1    0    0    -1  
$EndComp
$Comp
L L LM1
U 1 1 58B0354D
P 3600 2400
F 0 "LM1" H 3600 2500 60  0000 C CNN
F 1 "Lmot" H 3600 2350 60  0000 C CNN
F 2 "" H 3600 2400 60  0000 C CNN
F 3 "" H 3600 2400 60  0000 C CNN
	1    3600 2400
	1    0    0    -1  
$EndComp
$Comp
L R RM1
U 1 1 58B035B3
P 4200 2400
F 0 "RM1" H 4200 2500 60  0000 C CNN
F 1 "Rmot" H 4200 2300 60  0000 C CNN
F 2 "" H 4200 2400 60  0000 C CNN
F 3 "" H 4200 2400 60  0000 C CNN
	1    4200 2400
	1    0    0    -1  
$EndComp
$Comp
L QNMOS XQ22
U 1 1 58B03720
P 5300 2800
F 0 "XQ22" H 5225 2925 50  0000 R CNN
F 1 "SI2306BDS" H 5350 2625 50  0000 R CNN
F 2 "" H 5500 2900 50  0000 C CNN
F 3 "" H 5300 2800 50  0000 C CNN
	1    5300 2800
	-1   0    0    -1  
$EndComp
Text GLabel 5200 1000 1    60   Input ~ 0
MOT
$Comp
L 0 #GND03
U 1 1 58B03945
P 3200 3800
F 0 "#GND03" H 3200 3700 40  0001 C CNN
F 1 "0" H 3200 3730 40  0000 C CNN
F 2 "" H 3200 3800 60  0000 C CNN
F 3 "" H 3200 3800 60  0000 C CNN
	1    3200 3800
	1    0    0    -1  
$EndComp
$Comp
L 0 #GND04
U 1 1 58B0398C
P 5200 3800
F 0 "#GND04" H 5200 3700 40  0001 C CNN
F 1 "0" H 5200 3730 40  0000 C CNN
F 2 "" H 5200 3800 60  0000 C CNN
F 3 "" H 5200 3800 60  0000 C CNN
	1    5200 3800
	1    0    0    -1  
$EndComp
Text Notes 8300 2150 0    60   ~ 0
-pspice\n* \n.param\n+ Fpwm=30KHz\n+ duty=0.5\n+ Lmot=12mH\n+ Rmot=22R
Text GLabel 3200 2400 0    60   Input ~ 0
MA
Text GLabel 5200 2400 2    60   Input ~ 0
MB
$Comp
L R R18
U 1 1 58B0460D
P 4600 6200
F 0 "R18" H 4600 6300 60  0000 C CNN
F 1 "100" H 4600 6100 60  0000 C CNN
F 2 "" H 4600 6200 60  0000 C CNN
F 3 "" H 4600 6200 60  0000 C CNN
	1    4600 6200
	0    -1   -1   0   
$EndComp
$Comp
L R R21
U 1 1 58B04931
P 7300 5100
F 0 "R21" H 7300 5200 60  0000 C CNN
F 1 "100" H 7300 5000 60  0000 C CNN
F 2 "" H 7300 5100 60  0000 C CNN
F 3 "" H 7300 5100 60  0000 C CNN
	1    7300 5100
	0    -1   -1   0   
$EndComp
Text GLabel 7300 3900 1    60   Input ~ 0
MOT
Text GLabel 2700 2000 0    60   Input ~ 0
GAH
Text GLabel 2700 2800 0    60   Input ~ 0
GAL
Text GLabel 5700 2000 2    60   Input ~ 0
GBH
Text GLabel 5700 2800 2    60   Input ~ 0
GBL
$Comp
L V VM1
U 1 1 58B04D60
P 1800 1400
F 0 "VM1" H 1675 1600 60  0000 C CNN
F 1 "DC 0V PULSE 0V 3.3V 0S 5nS 5nS {duty/Fpwm} {1/Fpwm}" V 700 800 60  0000 C CNN
F 2 "" H 1475 1400 60  0000 C CNN
F 3 "" H 1475 1400 60  0000 C CNN
	1    1800 1400
	1    0    0    -1  
$EndComp
$Comp
L 0 #GND05
U 1 1 58B04D66
P 1800 1800
F 0 "#GND05" H 1800 1700 40  0001 C CNN
F 1 "0" H 1800 1730 40  0000 C CNN
F 2 "" H 1800 1800 60  0000 C CNN
F 3 "" H 1800 1800 60  0000 C CNN
	1    1800 1800
	1    0    0    -1  
$EndComp
Text GLabel 1800 1000 1    60   Input ~ 0
PWM
Text GLabel 6300 5200 2    60   Input ~ 0
GAH
Text GLabel 7300 4700 0    60   Input ~ 0
GBH
Text GLabel 6750 950  2    60   Input ~ 0
GBL
$Comp
L 0 #GND06
U 1 1 58B061F3
P 6550 1750
F 0 "#GND06" H 6550 1650 40  0001 C CNN
F 1 "0" H 6550 1680 40  0000 C CNN
F 2 "" H 6550 1750 60  0000 C CNN
F 3 "" H 6550 1750 60  0000 C CNN
	1    6550 1750
	1    0    0    -1  
$EndComp
Text GLabel 5500 4400 1    60   Input ~ 0
MOT
$Comp
L R R12
U 1 1 58B062F4
P 4600 4800
F 0 "R12" H 4600 4900 60  0000 C CNN
F 1 "1K" H 4600 4700 60  0000 C CNN
F 2 "" H 4600 4800 60  0000 C CNN
F 3 "" H 4600 4800 60  0000 C CNN
	1    4600 4800
	0    -1   -1   0   
$EndComp
$Comp
L R R22
U 1 1 58B06552
P 7300 4300
F 0 "R22" H 7300 4400 60  0000 C CNN
F 1 "10K" H 7300 4200 60  0000 C CNN
F 2 "" H 7300 4300 60  0000 C CNN
F 3 "" H 7300 4300 60  0000 C CNN
	1    7300 4300
	0    -1   -1   0   
$EndComp
$Comp
L 0 #GND07
U 1 1 58B06A29
P 4600 6600
F 0 "#GND07" H 4600 6500 40  0001 C CNN
F 1 "0" H 4600 6530 40  0000 C CNN
F 2 "" H 4600 6600 60  0000 C CNN
F 3 "" H 4600 6600 60  0000 C CNN
	1    4600 6600
	1    0    0    -1  
$EndComp
Text GLabel 3900 2400 3    60   Input ~ 0
M0
$Comp
L QNPN Q12
U 1 1 58B0A01C
P 5400 5600
F 0 "Q12" H 5350 5800 60  0000 C CNN
F 1 "Q2N2222A" V 5650 5600 60  0000 C CNN
F 2 "" H 5075 5600 60  0000 C CNN
F 3 "" H 5075 5600 60  0000 C CNN
	1    5400 5600
	1    0    0    -1  
$EndComp
$Comp
L QNPN Q22
U 1 1 58B0A53B
P 7400 5700
F 0 "Q22" H 7350 5900 60  0000 C CNN
F 1 "Q2N2222A" V 7650 5700 60  0000 C CNN
F 2 "" H 7075 5700 60  0000 C CNN
F 3 "" H 7075 5700 60  0000 C CNN
	1    7400 5700
	-1   0    0    -1  
$EndComp
$Comp
L 0 #GND08
U 1 1 58B0A710
P 7300 6100
F 0 "#GND08" H 7300 6000 40  0001 C CNN
F 1 "0" H 7300 6030 40  0000 C CNN
F 2 "" H 7300 6100 60  0000 C CNN
F 3 "" H 7300 6100 60  0000 C CNN
	1    7300 6100
	1    0    0    -1  
$EndComp
Text GLabel 8400 5700 2    60   Input ~ 0
LOG
$Comp
L R R15
U 1 1 58B0B0BE
P 2050 6450
F 0 "R15" H 2050 6550 60  0000 C CNN
F 1 "1K" H 2050 6350 60  0000 C CNN
F 2 "" H 2050 6450 60  0000 C CNN
F 3 "" H 2050 6450 60  0000 C CNN
	1    2050 6450
	0    -1   1    0   
$EndComp
$Comp
L R R2
U 1 1 58B0BB8C
P 6550 1350
F 0 "R2" H 6550 1450 60  0000 C CNN
F 1 "0R" H 6550 1250 60  0000 C CNN
F 2 "" H 6550 1350 60  0000 C CNN
F 3 "" H 6550 1350 60  0000 C CNN
	1    6550 1350
	0    -1   -1   0   
$EndComp
$Comp
L QPNP Q13
U 1 1 58B0D5A1
P 2850 7250
F 0 "Q13" H 2800 7450 60  0000 C CNN
F 1 "MMBT3906" V 3100 7250 60  0000 C CNN
F 2 "" H 2525 7250 60  0000 C CNN
F 3 "" H 2525 7250 60  0000 C CNN
	1    2850 7250
	1    0    0    1   
$EndComp
Text GLabel 3750 6850 2    60   Input ~ 0
GAL
Text GLabel 2950 6050 1    60   Input ~ 0
DRV
$Comp
L R R14
U 1 1 58B0D89A
P 1350 7250
F 0 "R14" H 1350 7350 60  0000 C CNN
F 1 "1K" H 1350 7150 60  0000 C CNN
F 2 "" H 1350 7250 60  0000 C CNN
F 3 "" H 1350 7250 60  0000 C CNN
	1    1350 7250
	1    0    0    -1  
$EndComp
$Comp
L 0 #GND09
U 1 1 58B0DA7F
P 2950 7650
F 0 "#GND09" H 2950 7550 40  0001 C CNN
F 1 "0" H 2950 7580 40  0000 C CNN
F 2 "" H 2950 7650 60  0000 C CNN
F 3 "" H 2950 7650 60  0000 C CNN
	1    2950 7650
	1    0    0    -1  
$EndComp
$Comp
L QNPN Q14
U 1 1 58B0E40F
P 2850 6450
F 0 "Q14" H 2800 6650 60  0000 C CNN
F 1 "Q2N2222A" V 3100 6450 60  0000 C CNN
F 2 "" H 2525 6450 60  0000 C CNN
F 3 "" H 2525 6450 60  0000 C CNN
	1    2850 6450
	1    0    0    -1  
$EndComp
Text GLabel 950  7250 0    60   Input ~ 0
PWM
Text GLabel 2050 6050 1    60   Input ~ 0
DRV
$Comp
L QNPN Q15
U 1 1 58B0F577
P 1950 7250
F 0 "Q15" H 1900 7450 60  0000 C CNN
F 1 "Q2N2222A" V 2200 7250 60  0000 C CNN
F 2 "" H 1625 7250 60  0000 C CNN
F 3 "" H 1625 7250 60  0000 C CNN
	1    1950 7250
	1    0    0    -1  
$EndComp
$Comp
L 0 #GND010
U 1 1 58B0F69A
P 2050 7650
F 0 "#GND010" H 2050 7550 40  0001 C CNN
F 1 "0" H 2050 7580 40  0000 C CNN
F 2 "" H 2050 7650 60  0000 C CNN
F 3 "" H 2050 7650 60  0000 C CNN
	1    2050 7650
	1    0    0    -1  
$EndComp
Text GLabel 2450 6450 1    60   Input ~ 0
PAL
Text GLabel 1650 7250 1    60   Input ~ 0
XAL
Wire Wire Line
	1800 2300 1800 2500
Wire Wire Line
	1800 2900 1800 3100
Wire Wire Line
	1400 4000 1400 4100
Wire Wire Line
	1400 5100 1400 5300
Wire Wire Line
	1400 4000 1500 4000
Wire Wire Line
	1400 4500 1400 4700
Wire Wire Line
	1400 4600 1500 4600
Connection ~ 1400 4600
Wire Wire Line
	3200 1800 3200 1600
Wire Wire Line
	3200 2200 3200 2600
Wire Wire Line
	3200 2400 3400 2400
Connection ~ 3200 2400
Wire Wire Line
	3800 2400 4000 2400
Wire Wire Line
	5000 2400 5200 2400
Wire Wire Line
	5200 2200 5200 2600
Connection ~ 5200 2400
Wire Wire Line
	5200 1800 5200 1600
Wire Wire Line
	3200 3000 3200 3200
Wire Wire Line
	5200 3000 5200 3200
Wire Wire Line
	2900 2000 2700 2000
Wire Wire Line
	2900 2800 2700 2800
Wire Wire Line
	5500 2800 5700 2800
Wire Wire Line
	5500 2000 5700 2000
Wire Wire Line
	7300 4100 7300 3900
Wire Wire Line
	1800 1000 1800 1200
Wire Wire Line
	1800 1600 1800 1800
Wire Wire Line
	5500 5000 5500 5400
Wire Wire Line
	4600 6400 4600 6600
Wire Wire Line
	7300 4500 7300 4900
Wire Wire Line
	7300 5300 7300 5500
Wire Wire Line
	6750 950  6550 950 
Wire Wire Line
	6550 950  6550 1150
Wire Wire Line
	5500 4600 5500 4400
Wire Wire Line
	5000 5600 5200 5600
Wire Wire Line
	7600 5700 7800 5700
Wire Wire Line
	7300 5900 7300 6100
Wire Wire Line
	6550 1550 6550 1750
Wire Wire Line
	2950 6650 2950 7050
Wire Wire Line
	2950 6850 3150 6850
Wire Wire Line
	2950 6250 2950 6050
Connection ~ 2950 6850
Wire Wire Line
	2950 7450 2950 7650
Wire Wire Line
	2450 6450 2650 6450
Wire Wire Line
	2450 7250 2650 7250
Wire Wire Line
	1150 7250 950  7250
Wire Wire Line
	2450 6450 2450 7250
Wire Wire Line
	2050 7450 2050 7650
Wire Wire Line
	2450 6850 2050 6850
Wire Wire Line
	2050 6650 2050 7050
Connection ~ 2450 6850
Connection ~ 2050 6850
Wire Wire Line
	2050 6250 2050 6050
Wire Wire Line
	1750 7250 1550 7250
$Comp
L QPMOS XQ11
U 1 1 58B133F6
P 3100 2000
F 0 "XQ11" H 3000 2125 50  0000 R CNN
F 1 "AO3407" H 3150 1825 50  0000 R CNN
F 2 "" H 3300 2100 50  0000 C CNN
F 3 "" H 3100 2000 50  0000 C CNN
	1    3100 2000
	1    0    0    1   
$EndComp
$Comp
L QPMOS XQ21
U 1 1 58B141E0
P 5300 2000
F 0 "XQ21" H 5200 2125 50  0000 R CNN
F 1 "AO3407" H 5350 1825 50  0000 R CNN
F 2 "" H 5500 2100 50  0000 C CNN
F 3 "" H 5300 2000 50  0000 C CNN
	1    5300 2000
	-1   0    0    1   
$EndComp
$Comp
L R R17
U 1 1 58B15B74
P 3900 5600
F 0 "R17" H 3900 5700 60  0000 C CNN
F 1 "1K" H 3900 5500 60  0000 C CNN
F 2 "" H 3900 5600 60  0000 C CNN
F 3 "" H 3900 5600 60  0000 C CNN
	1    3900 5600
	1    0    0    -1  
$EndComp
$Comp
L R R23
U 1 1 58B15E2F
P 8000 5700
F 0 "R23" H 8000 5800 60  0000 C CNN
F 1 "1K" H 8000 5600 60  0000 C CNN
F 2 "" H 8000 5700 60  0000 C CNN
F 3 "" H 8000 5700 60  0000 C CNN
	1    8000 5700
	1    0    0    -1  
$EndComp
Wire Wire Line
	8400 5700 8200 5700
$Comp
L R R16
U 1 1 58B19847
P 3350 6850
F 0 "R16" H 3350 6950 60  0000 C CNN
F 1 "10R" H 3350 6750 60  0000 C CNN
F 2 "" H 3350 6850 60  0000 C CNN
F 3 "" H 3350 6850 60  0000 C CNN
	1    3350 6850
	1    0    0    -1  
$EndComp
Wire Wire Line
	3750 6850 3550 6850
$Comp
L V VX1
U 1 1 58B1BFDD
P 4800 2400
F 0 "VX1" V 5050 2400 60  0000 C CNN
F 1 "DC 0V" V 4550 2400 60  0000 C CNN
F 2 "" H 4475 2400 60  0000 C CNN
F 3 "" H 4475 2400 60  0000 C CNN
	1    4800 2400
	0    -1   -1   0   
$EndComp
Wire Wire Line
	4600 2400 4400 2400
$Comp
L V VQ21
U 1 1 58B1D89C
P 5200 1400
F 0 "VQ21" H 5075 1600 60  0000 C CNN
F 1 "DC 0V" H 4850 1400 60  0000 C CNN
F 2 "" H 4875 1400 60  0000 C CNN
F 3 "" H 4875 1400 60  0000 C CNN
	1    5200 1400
	1    0    0    -1  
$EndComp
Wire Wire Line
	3200 1000 3200 1200
Wire Wire Line
	5200 1000 5200 1200
$Comp
L V VQ11
U 1 1 58B1DE3D
P 3200 1400
F 0 "VQ11" H 3075 1600 60  0000 C CNN
F 1 "DC 0V" H 2850 1400 60  0000 C CNN
F 2 "" H 2875 1400 60  0000 C CNN
F 3 "" H 2875 1400 60  0000 C CNN
	1    3200 1400
	1    0    0    -1  
$EndComp
$Comp
L V VQ12
U 1 1 58B1EE5D
P 3200 3400
F 0 "VQ12" H 3075 3600 60  0000 C CNN
F 1 "DC 0V" H 2850 3400 60  0000 C CNN
F 2 "" H 2875 3400 60  0000 C CNN
F 3 "" H 2875 3400 60  0000 C CNN
	1    3200 3400
	1    0    0    -1  
$EndComp
$Comp
L V VQ22
U 1 1 58B1EF16
P 5200 3400
F 0 "VQ22" H 5075 3600 60  0000 C CNN
F 1 "DC 0V" H 4850 3400 60  0000 C CNN
F 2 "" H 4875 3400 60  0000 C CNN
F 3 "" H 4875 3400 60  0000 C CNN
	1    5200 3400
	1    0    0    -1  
$EndComp
Wire Wire Line
	3200 3600 3200 3800
Wire Wire Line
	5200 3600 5200 3800
Text GLabel 1500 3400 2    60   Input ~ 0
DRH
$Comp
L QPNP Q16
U 1 1 58B22748
P 5400 4800
F 0 "Q16" H 5350 5000 60  0000 C CNN
F 1 "MMBT3906" V 5650 4800 60  0000 C CNN
F 2 "" H 5075 4800 60  0000 C CNN
F 3 "" H 5075 4800 60  0000 C CNN
	1    5400 4800
	1    0    0    1   
$EndComp
$Comp
L R R13
U 1 1 58B236BA
P 5900 5200
F 0 "R13" H 5900 5300 60  0000 C CNN
F 1 "10R" H 5900 5100 60  0000 C CNN
F 2 "" H 5900 5200 60  0000 C CNN
F 3 "" H 5900 5200 60  0000 C CNN
	1    5900 5200
	1    0    0    -1  
$EndComp
Wire Wire Line
	6300 5200 6100 5200
Wire Wire Line
	5700 5200 5500 5200
Connection ~ 5500 5200
Wire Wire Line
	5200 4800 5000 4800
Wire Wire Line
	5000 4800 5000 5600
Wire Wire Line
	5000 5200 4600 5200
Connection ~ 5000 5200
Text GLabel 4600 4400 1    60   Input ~ 0
MOT
Wire Wire Line
	4600 4600 4600 4400
Wire Wire Line
	4600 5000 4600 5400
$Comp
L QNPN Q17
U 1 1 58B24609
P 4500 5600
F 0 "Q17" H 4450 5800 60  0000 C CNN
F 1 "Q2N2222A" V 4750 5600 60  0000 C CNN
F 2 "" H 4175 5600 60  0000 C CNN
F 3 "" H 4175 5600 60  0000 C CNN
	1    4500 5600
	1    0    0    -1  
$EndComp
Connection ~ 4600 5200
Wire Wire Line
	4300 5600 4100 5600
Wire Wire Line
	3700 5600 3500 5600
Text GLabel 3500 5600 0    60   Input ~ 0
LOG
$Comp
L R R11
U 1 1 58B25E0E
P 5500 6200
F 0 "R11" H 5500 6300 60  0000 C CNN
F 1 "330" H 5500 6100 60  0000 C CNN
F 2 "" H 5500 6200 60  0000 C CNN
F 3 "" H 5500 6200 60  0000 C CNN
	1    5500 6200
	0    -1   -1   0   
$EndComp
$Comp
L 0 #GND011
U 1 1 58B25E14
P 5500 6600
F 0 "#GND011" H 5500 6500 40  0001 C CNN
F 1 "0" H 5500 6530 40  0000 C CNN
F 2 "" H 5500 6600 60  0000 C CNN
F 3 "" H 5500 6600 60  0000 C CNN
	1    5500 6600
	1    0    0    -1  
$EndComp
Wire Wire Line
	5500 6400 5500 6600
Wire Wire Line
	5500 6000 5500 5800
Wire Wire Line
	4600 6000 4600 5800
$EndSCHEMATC
