EESchema Schematic File Version 2
LIBS:spice
LIBS:project-cache
EELAYER 25 0
EELAYER END
$Descr A4 11693 8268
encoding utf-8
Sheet 1 1
Title ""
Date ""
Rev ""
Comp ""
Comment1 ""
Comment2 ""
Comment3 ""
Comment4 ""
$EndDescr
$Comp
L V V1
U 1 1 56F2CA7B
P 1800 2700
F 0 "V1" H 1675 2900 60  0000 C CNN
F 1 "DC 3.3V" H 1300 2700 60  0000 C CNN
F 2 "" H 1475 2700 60  0000 C CNN
F 3 "" H 1475 2700 60  0000 C CNN
	1    1800 2700
	1    0    0    -1  
$EndComp
Text Notes 8950 6300 0    60   ~ 0
+pspice\n* \n.control\n  options nopage\n  options savecurrents\n  tran 10nS 110uS 10uS\n  let IQ11=VQ11#branch\n  let PQ11=IQ11*v(MOT,MA)\n  let IQ21=VQ21#branch\n  let PQ21=IQ21*v(MOT,MB)\n  let IQ12=VQ12#branch\n  let PQ12=IQ12*v(MA)\n  let IQ22=VQ22#branch\n  let PQ22=IQ22*v(MB)\n  let Isrc=-VP1#branch\n  let Psrc=Isrc*v(MOT)\n  let Imot=VX1#branch\n  let Pmot=Imot*v(MA,MB)\n  let cop=Pmot*100/Psrc\n  set gnuplot_terminal=png\n  gnuplot project\n  + v(PWM)\n*  + v(GAH,MOT)\n  + v(MA)\n  + v(MB)\n  meas tran PQ11 avg PQ11\n  meas tran PQ21 avg PQ21\n  meas tran PQ12 avg PQ12\n  meas tran PQ22 avg PQ22\n  meas tran Psrc avg Psrc\n  meas tran Pmot avg Pmot\n  meas tran cop avg cop\n.endc
$Comp
L 0 #GND01
U 1 1 57FC98F4
P 1800 3100
F 0 "#GND01" H 1800 3000 40  0001 C CNN
F 1 "0" H 1800 3030 40  0000 C CNN
F 2 "" H 1800 3100 60  0000 C CNN
F 3 "" H 1800 3100 60  0000 C CNN
	1    1800 3100
	1    0    0    -1  
$EndComp
Text GLabel 1800 2300 1    60   Input ~ 0
LOG
Text Notes 8300 1100 0    60   ~ 0
-pspice\n* \n.include ../.spice/diode.lib\n.include ../.spice/mosfet.lib\n.include ../.spice/driver.lib
$Comp
L V VP2
U 1 1 58B027AB
P 1400 4300
F 0 "VP2" H 1275 4500 60  0000 C CNN
F 1 "DC 12V" H 900 4300 60  0000 C CNN
F 2 "" H 1075 4300 60  0000 C CNN
F 3 "" H 1075 4300 60  0000 C CNN
	1    1400 4300
	1    0    0    -1  
$EndComp
$Comp
L 0 #GND02
U 1 1 58B027B1
P 1400 5300
F 0 "#GND02" H 1400 5200 40  0001 C CNN
F 1 "0" H 1400 5230 40  0000 C CNN
F 2 "" H 1400 5300 60  0000 C CNN
F 3 "" H 1400 5300 60  0000 C CNN
	1    1400 5300
	1    0    0    -1  
$EndComp
Text GLabel 1500 4000 2    60   Input ~ 0
MOT
$Comp
L V VP1
U 1 1 58B02BB1
P 1400 4900
F 0 "VP1" H 1275 5100 60  0000 C CNN
F 1 "DC 15V" H 900 4900 60  0000 C CNN
F 2 "" H 1075 4900 60  0000 C CNN
F 3 "" H 1075 4900 60  0000 C CNN
	1    1400 4900
	1    0    0    -1  
$EndComp
Text GLabel 1500 4600 2    60   Input ~ 0
DRV
Text GLabel 3200 1000 1    60   Input ~ 0
MOT
$Comp
L QNMOS XQ12
U 1 1 58B034D0
P 3100 2800
F 0 "XQ12" H 3025 2925 50  0000 R CNN
F 1 "SUD50N03" H 3150 2625 50  0000 R CNN
F 2 "" H 3300 2900 50  0000 C CNN
F 3 "" H 3100 2800 50  0000 C CNN
	1    3100 2800
	1    0    0    -1  
$EndComp
$Comp
L L LM1
U 1 1 58B0354D
P 3600 2400
F 0 "LM1" H 3600 2500 60  0000 C CNN
F 1 "Lmot" H 3600 2350 60  0000 C CNN
F 2 "" H 3600 2400 60  0000 C CNN
F 3 "" H 3600 2400 60  0000 C CNN
	1    3600 2400
	1    0    0    -1  
$EndComp
$Comp
L R RM1
U 1 1 58B035B3
P 4200 2400
F 0 "RM1" H 4200 2500 60  0000 C CNN
F 1 "Rmot" H 4200 2300 60  0000 C CNN
F 2 "" H 4200 2400 60  0000 C CNN
F 3 "" H 4200 2400 60  0000 C CNN
	1    4200 2400
	1    0    0    -1  
$EndComp
$Comp
L QNMOS XQ22
U 1 1 58B03720
P 5300 2800
F 0 "XQ22" H 5225 2925 50  0000 R CNN
F 1 "SUD50N03" H 5350 2625 50  0000 R CNN
F 2 "" H 5500 2900 50  0000 C CNN
F 3 "" H 5300 2800 50  0000 C CNN
	1    5300 2800
	-1   0    0    -1  
$EndComp
Text GLabel 5200 1000 1    60   Input ~ 0
MOT
$Comp
L 0 #GND03
U 1 1 58B03945
P 3200 3800
F 0 "#GND03" H 3200 3700 40  0001 C CNN
F 1 "0" H 3200 3730 40  0000 C CNN
F 2 "" H 3200 3800 60  0000 C CNN
F 3 "" H 3200 3800 60  0000 C CNN
	1    3200 3800
	1    0    0    -1  
$EndComp
$Comp
L 0 #GND04
U 1 1 58B0398C
P 5200 3800
F 0 "#GND04" H 5200 3700 40  0001 C CNN
F 1 "0" H 5200 3730 40  0000 C CNN
F 2 "" H 5200 3800 60  0000 C CNN
F 3 "" H 5200 3800 60  0000 C CNN
	1    5200 3800
	1    0    0    -1  
$EndComp
Text Notes 8300 2150 0    60   ~ 0
-pspice\n* \n.param\n+ Fpwm=30KHz\n+ duty=0.5\n+ Lmot=12mH\n+ Rmot=22R
Text GLabel 3200 2400 0    60   Input ~ 0
M1
Text GLabel 5200 2400 2    60   Input ~ 0
M2
Text GLabel 2700 2000 0    60   Input ~ 0
G1H
Text GLabel 2700 2800 0    60   Input ~ 0
G1L
Text GLabel 5700 2000 2    60   Input ~ 0
G2H
Text GLabel 5700 2800 2    60   Input ~ 0
G2L
$Comp
L V VM1
U 1 1 58B04D60
P 1800 1400
F 0 "VM1" H 1675 1600 60  0000 C CNN
F 1 "DC 0V PULSE 0V 3.3V 0S 5nS 5nS {duty/Fpwm} {1/Fpwm}" V 700 800 60  0000 C CNN
F 2 "" H 1475 1400 60  0000 C CNN
F 3 "" H 1475 1400 60  0000 C CNN
	1    1800 1400
	1    0    0    -1  
$EndComp
$Comp
L 0 #GND05
U 1 1 58B04D66
P 1800 1800
F 0 "#GND05" H 1800 1700 40  0001 C CNN
F 1 "0" H 1800 1730 40  0000 C CNN
F 2 "" H 1800 1800 60  0000 C CNN
F 3 "" H 1800 1800 60  0000 C CNN
	1    1800 1800
	1    0    0    -1  
$EndComp
Text GLabel 1800 1000 1    60   Input ~ 0
PWM
Text GLabel 3900 2400 3    60   Input ~ 0
M0
$Comp
L V VX1
U 1 1 58B1BFDD
P 4800 2400
F 0 "VX1" V 5050 2400 60  0000 C CNN
F 1 "DC 0V" V 4550 2400 60  0000 C CNN
F 2 "" H 4475 2400 60  0000 C CNN
F 3 "" H 4475 2400 60  0000 C CNN
	1    4800 2400
	0    -1   -1   0   
$EndComp
$Comp
L V VQ21
U 1 1 58B1D89C
P 5200 1400
F 0 "VQ21" H 5075 1600 60  0000 C CNN
F 1 "DC 0V" H 4850 1400 60  0000 C CNN
F 2 "" H 4875 1400 60  0000 C CNN
F 3 "" H 4875 1400 60  0000 C CNN
	1    5200 1400
	1    0    0    -1  
$EndComp
$Comp
L V VQ11
U 1 1 58B1DE3D
P 3200 1400
F 0 "VQ11" H 3075 1600 60  0000 C CNN
F 1 "DC 0V" H 2850 1400 60  0000 C CNN
F 2 "" H 2875 1400 60  0000 C CNN
F 3 "" H 2875 1400 60  0000 C CNN
	1    3200 1400
	1    0    0    -1  
$EndComp
$Comp
L V VQ12
U 1 1 58B1EE5D
P 3200 3400
F 0 "VQ12" H 3075 3600 60  0000 C CNN
F 1 "DC 0V" H 2850 3400 60  0000 C CNN
F 2 "" H 2875 3400 60  0000 C CNN
F 3 "" H 2875 3400 60  0000 C CNN
	1    3200 3400
	1    0    0    -1  
$EndComp
$Comp
L V VQ22
U 1 1 58B1EF16
P 5200 3400
F 0 "VQ22" H 5075 3600 60  0000 C CNN
F 1 "DC 0V" H 4850 3400 60  0000 C CNN
F 2 "" H 4875 3400 60  0000 C CNN
F 3 "" H 4875 3400 60  0000 C CNN
	1    5200 3400
	1    0    0    -1  
$EndComp
$Comp
L QNMOS XQ11
U 1 1 58B27448
P 3100 2000
F 0 "XQ11" H 3025 2125 50  0000 R CNN
F 1 "SUD50N03" H 3150 1825 50  0000 R CNN
F 2 "" H 3300 2100 50  0000 C CNN
F 3 "" H 3100 2000 50  0000 C CNN
	1    3100 2000
	1    0    0    -1  
$EndComp
$Comp
L QNMOS XQ21
U 1 1 58B274D7
P 5300 2000
F 0 "XQ21" H 5225 2125 50  0000 R CNN
F 1 "SUD50N03" H 5350 1825 50  0000 R CNN
F 2 "" H 5500 2100 50  0000 C CNN
F 3 "" H 5300 2000 50  0000 C CNN
	1    5300 2000
	-1   0    0    -1  
$EndComp
$Comp
L IR2109 XU1
U 1 1 58B27E1A
P 3250 4950
F 0 "XU1" H 3250 5250 60  0000 C CNN
F 1 "IR2109" H 3250 4675 60  0000 C CNN
F 2 "" H 3250 4950 60  0000 C CNN
F 3 "" H 3250 4950 60  0000 C CNN
	1    3250 4950
	1    0    0    -1  
$EndComp
$Comp
L IR2109 XU2
U 1 1 58B27F22
P 6250 4950
F 0 "XU2" H 6250 5250 60  0000 C CNN
F 1 "IR2109" H 6250 4675 60  0000 C CNN
F 2 "" H 6250 4950 60  0000 C CNN
F 3 "" H 6250 4950 60  0000 C CNN
	1    6250 4950
	1    0    0    -1  
$EndComp
Text GLabel 3900 5000 2    60   Input ~ 0
M1
Text GLabel 6900 5000 2    60   Input ~ 0
M2
$Comp
L D XD1
U 1 1 58B287BF
P 3900 4500
F 0 "XD1" H 3900 4625 60  0000 C CNN
F 1 "SS14" H 3900 4375 60  0000 C CNN
F 2 "" H 3900 4500 60  0000 C CNN
F 3 "" H 3900 4500 60  0000 C CNN
	1    3900 4500
	0    -1   1    0   
$EndComp
$Comp
L D XD2
U 1 1 58B28915
P 6900 4500
F 0 "XD2" H 6900 4625 60  0000 C CNN
F 1 "SS14" H 6900 4375 60  0000 C CNN
F 2 "" H 6900 4500 60  0000 C CNN
F 3 "" H 6900 4500 60  0000 C CNN
	1    6900 4500
	0    -1   1    0   
$EndComp
Text GLabel 2600 4600 1    60   Input ~ 0
DRV
Text GLabel 3900 4200 1    60   Input ~ 0
DRV
Text GLabel 5600 4600 1    60   Input ~ 0
DRV
$Comp
L 0 #GND06
U 1 1 58B28F6E
P 2600 5300
F 0 "#GND06" H 2600 5200 40  0001 C CNN
F 1 "0" H 2600 5230 40  0000 C CNN
F 2 "" H 2600 5300 60  0000 C CNN
F 3 "" H 2600 5300 60  0000 C CNN
	1    2600 5300
	1    0    0    -1  
$EndComp
$Comp
L 0 #GND07
U 1 1 58B28FC5
P 5600 5300
F 0 "#GND07" H 5600 5200 40  0001 C CNN
F 1 "0" H 5600 5230 40  0000 C CNN
F 2 "" H 5600 5300 60  0000 C CNN
F 3 "" H 5600 5300 60  0000 C CNN
	1    5600 5300
	1    0    0    -1  
$EndComp
Text GLabel 6900 4150 1    60   Input ~ 0
DRV
$Comp
L C CB2
U 1 1 58B296CC
P 6700 5800
F 0 "CB2" H 6700 5925 60  0000 C CNN
F 1 "100nF" H 6700 5675 60  0000 C CNN
F 2 "" H 6050 6350 60  0000 C CNN
F 3 "" H 6050 6350 60  0000 C CNN
	1    6700 5800
	0    -1   -1   0   
$EndComp
$Comp
L C CB1
U 1 1 58B297E7
P 3800 5800
F 0 "CB1" H 3800 5925 60  0000 C CNN
F 1 "100nF" H 3800 5675 60  0000 C CNN
F 2 "" H 3150 6350 60  0000 C CNN
F 3 "" H 3150 6350 60  0000 C CNN
	1    3800 5800
	0    -1   -1   0   
$EndComp
Wire Wire Line
	1800 2300 1800 2500
Wire Wire Line
	1800 2900 1800 3100
Wire Wire Line
	1400 4000 1400 4100
Wire Wire Line
	1400 5100 1400 5300
Wire Wire Line
	1400 4000 1500 4000
Wire Wire Line
	1400 4500 1400 4700
Wire Wire Line
	1400 4600 1500 4600
Connection ~ 1400 4600
Wire Wire Line
	3200 1800 3200 1600
Wire Wire Line
	3200 2200 3200 2600
Wire Wire Line
	3200 2400 3400 2400
Connection ~ 3200 2400
Wire Wire Line
	3800 2400 4000 2400
Wire Wire Line
	5000 2400 5200 2400
Wire Wire Line
	5200 2200 5200 2600
Connection ~ 5200 2400
Wire Wire Line
	5200 1800 5200 1600
Wire Wire Line
	3200 3000 3200 3200
Wire Wire Line
	5200 3000 5200 3200
Wire Wire Line
	2900 2000 2700 2000
Wire Wire Line
	2900 2800 2700 2800
Wire Wire Line
	5500 2800 5700 2800
Wire Wire Line
	5500 2000 5700 2000
Wire Wire Line
	1800 1000 1800 1200
Wire Wire Line
	1800 1600 1800 1800
Wire Wire Line
	4600 2400 4400 2400
Wire Wire Line
	3200 1000 3200 1200
Wire Wire Line
	5200 1000 5200 1200
Wire Wire Line
	3200 3600 3200 3800
Wire Wire Line
	5200 3600 5200 3800
Wire Wire Line
	3900 5000 3700 5000
Wire Wire Line
	6900 5000 6700 5000
Wire Wire Line
	3700 4800 3900 4800
Wire Wire Line
	3900 4800 3900 4600
Wire Wire Line
	6700 4800 6900 4800
Wire Wire Line
	6900 4800 6900 4600
Wire Wire Line
	2800 5100 2600 5100
Wire Wire Line
	2600 5000 2600 5300
Wire Wire Line
	2800 4800 2600 4800
Wire Wire Line
	2600 4800 2600 4600
Wire Wire Line
	5800 5100 5600 5100
Wire Wire Line
	5600 5000 5600 5300
Wire Wire Line
	5800 4800 5600 4800
Wire Wire Line
	5600 4800 5600 4600
Wire Wire Line
	3700 4900 4200 4900
Wire Wire Line
	3700 5100 4000 5100
Wire Wire Line
	5800 4900 5600 4900
Wire Wire Line
	5800 5000 5600 5000
Connection ~ 5600 5100
Wire Wire Line
	2800 5000 2600 5000
Connection ~ 2600 5100
Wire Wire Line
	2800 4900 2600 4900
Wire Wire Line
	6700 4900 7200 4900
Wire Wire Line
	6700 5100 7000 5100
Wire Wire Line
	3900 4200 3900 4400
Wire Wire Line
	6900 4150 6900 4400
Text GLabel 3900 4800 2    60   Input ~ 0
VB1
Text GLabel 3800 5450 1    60   Input ~ 0
VB1
Text GLabel 3800 6100 3    60   Input ~ 0
M1
Wire Wire Line
	3800 5450 3800 5700
Wire Wire Line
	3800 5900 3800 6100
Text GLabel 6700 6100 3    60   Input ~ 0
M2
Text GLabel 6900 4800 2    60   Input ~ 0
VB2
Text GLabel 6700 5500 1    60   Input ~ 0
VB2
Wire Wire Line
	6700 5500 6700 5700
Wire Wire Line
	6700 5900 6700 6100
$Comp
L R RH1
U 1 1 58B2B2AF
P 4400 4900
F 0 "RH1" H 4400 5000 60  0000 C CNN
F 1 "10R" H 4400 4800 60  0000 C CNN
F 2 "" H 4400 4900 60  0000 C CNN
F 3 "" H 4400 4900 60  0000 C CNN
	1    4400 4900
	1    0    0    -1  
$EndComp
$Comp
L R RL1
U 1 1 58B2B455
P 4400 5300
F 0 "RL1" H 4400 5400 60  0000 C CNN
F 1 "10R" H 4400 5200 60  0000 C CNN
F 2 "" H 4400 5300 60  0000 C CNN
F 3 "" H 4400 5300 60  0000 C CNN
	1    4400 5300
	1    0    0    -1  
$EndComp
Wire Wire Line
	4000 5100 4000 5300
Wire Wire Line
	4000 5300 4200 5300
Wire Wire Line
	4600 5300 4800 5300
Wire Wire Line
	4600 4900 4800 4900
$Comp
L R RH2
U 1 1 58B2B826
P 7400 4900
F 0 "RH2" H 7400 5000 60  0000 C CNN
F 1 "10R" H 7400 4800 60  0000 C CNN
F 2 "" H 7400 4900 60  0000 C CNN
F 3 "" H 7400 4900 60  0000 C CNN
	1    7400 4900
	1    0    0    -1  
$EndComp
$Comp
L R RL2
U 1 1 58B2B82C
P 7400 5300
F 0 "RL2" H 7400 5400 60  0000 C CNN
F 1 "10R" H 7400 5200 60  0000 C CNN
F 2 "" H 7400 5300 60  0000 C CNN
F 3 "" H 7400 5300 60  0000 C CNN
	1    7400 5300
	1    0    0    -1  
$EndComp
Wire Wire Line
	7600 5300 7800 5300
Wire Wire Line
	7600 4900 7800 4900
Wire Wire Line
	7000 5100 7000 5300
Wire Wire Line
	7000 5300 7200 5300
Text GLabel 4800 4900 2    60   Input ~ 0
G1H
Text GLabel 4800 5300 2    60   Input ~ 0
G1L
Text GLabel 7800 4900 2    60   Input ~ 0
G2H
Text GLabel 7800 5300 2    60   Input ~ 0
G2L
Text GLabel 2600 4900 0    60   Input ~ 0
GC1
Text GLabel 5600 4900 0    60   Input ~ 0
GC2
Text GLabel 1400 6000 0    60   Input ~ 0
LOG
$Comp
L R R1
U 1 1 58B2C435
P 1800 6000
F 0 "R1" H 1800 6100 60  0000 C CNN
F 1 "0R" H 1800 5900 60  0000 C CNN
F 2 "" H 1800 6000 60  0000 C CNN
F 3 "" H 1800 6000 60  0000 C CNN
	1    1800 6000
	1    0    0    -1  
$EndComp
Wire Wire Line
	1600 6000 1400 6000
Wire Wire Line
	2000 6000 2200 6000
Text GLabel 2200 6000 2    60   Input ~ 0
GC2
$Comp
L R R2
U 1 1 58B2C800
P 1800 6400
F 0 "R2" H 1800 6500 60  0000 C CNN
F 1 "0R" H 1800 6300 60  0000 C CNN
F 2 "" H 1800 6400 60  0000 C CNN
F 3 "" H 1800 6400 60  0000 C CNN
	1    1800 6400
	1    0    0    -1  
$EndComp
Text GLabel 1400 6400 0    60   Input ~ 0
PWM
Text GLabel 2200 6400 2    60   Input ~ 0
GC1
Wire Wire Line
	1600 6400 1400 6400
Wire Wire Line
	2000 6400 2200 6400
$EndSCHEMATC
